Project 1: Exploratory Data Analysis with Tidyverse Tools
…
My Chosen Datasets

cntygrad <- read.csv("ResultsGrid_ExportData-2.csv")
cntyethnic <- read.csv("ResultsGrid_ExportData.csv")

For this project, I decided to take a dataset on graduations and educations levels in all the counties across Texas and combine it with a dataset on the ethnic makeup of all the counties across Texas. The County Education dataset (labelled cntygrad) has the percentage of all the people in each county that graduated high school, completed their bachelors degree, or are unemployed. The county ethnicity dataset has variables for hispanic, white, African American, Native American, Asian, Pacific Islander, and mixed race. I am hoping to find an association with a particular ethnic group having a significantly larger amount of education in larger population counties. These two datasets were obtained from the Texas Associations of Counties website. 

Tidying Data

library(tidyr)
library(tidyverse)
cntygrad %>% pivot_longer(c("County"), names_to = "Type", values_to = "Counties") %>% 
    pivot_wider(names_from = "Type", values_from = "Counties")

## # A tibble: 254 x 4
##    X..High.School.Graduate.… X..Bachelor.s.Degree.or… Unemployment.Rate… County 
##                        <dbl>                    <dbl>              <dbl> <fct>  
##  1                      80.2                     11.8                3.6 Anders…
##  2                      73.8                     10.6                3.1 Andrews
##  3                      79.9                     15.7                5.1 Angeli…
##  4                      83.2                     20.2                6.8 Aransas
##  5                      90.1                     21.8                3.4 Archer 
##  6                      89.8                     23.1                2.5 Armstr…
##  7                      75.3                     14.3                4.2 Atasco…
##  8                      82.4                     21                  4.3 Austin 
##  9                      67.6                     10.7                4.3 Bailey 
## 10                      86.8                     24                  3.6 Bandera
## # … with 244 more rows
…
# Total Percentage of Educated Population in each county
cnty %>% group_by(County) %>% summarize(totalEducated = HSGrad + 
    BSDegree)

## # A tibble: 254 x 2
##    County    totalEducated
##    <fct>             <dbl>
##  1 Anderson           92  
##  2 Andrews            84.4
##  3 Angelina           95.6
##  4 Aransas           103. 
##  5 Archer            112. 
##  6 Armstrong         113. 
##  7 Atascosa           89.6
##  8 Austin            103. 
##  9 Bailey             78.3
## 10 Bandera           111. 
## # … with 244 more rows

# Top Counties with Highest Graduation Rates
cnty %>% group_by(County) %>% top_n(5, HSGrad) %>% summarize(mean(HSGrad))

## # A tibble: 254 x 2
##    County    `mean(HSGrad)`
##    <fct>              <dbl>
##  1 Anderson            80.2
##  2 Andrews             73.8
##  3 Angelina            79.9
##  4 Aransas             83.2
##  5 Archer              90.1
##  6 Armstrong           89.8
##  7 Atascosa            75.3
##  8 Austin              82.4
##  9 Bailey              67.6
## 10 Bandera             86.8
## # … with 244 more rows
…
